{
  "product1":
    [
      {
        "model":"American Coach",
        "year":"2000",
        "elevationSystem":"Type A"
      },
      {
        "model":"Coachmen",
        "year":"2010",
        "elevationSystem":"Type B"
      },
      {
        "model":"Monaco",
        "year":"2005",
        "elevationSystem":"Type C"
      },
      {
        "model":"Nexus",
        "year":"2001",
        "elevationSystem":"Type D"
      },
      {
        "model":"Winnebago",
        "year":"2007",
        "elevationSystem":"Type E"
      }
    ],
  "product2":
    [
      {
        "model":"Entegra",
        "year":"2006",
        "elevationSystem":"Type A"
      },
      {
        "model":"Fleetwood",
        "year":"2002",
        "elevationSystem":"Type D"
      },
      {
        "model":"Forest River",
        "year":"2015",
        "elevationSystem":"Type B"
      },
      {
        "model":"Jayco",
        "year":"2003",
        "elevationSystem":"Type G"
      },
      {
        "model":"Thor Motor Coach",
        "year":"2008",
        "elevationSystem":"Type C"
      }
    ],
  "incompatible":
    [
      {
        "model":"Tiffin",
        "year":"2002",
        "elevationSystem":"Type B"
      },
      {
        "model":"Trek",
        "year":"2011",
        "elevationSystem":"Type A"
      },
      {
        "model":"Forest River",
        "year":"2001",
        "elevationSystem":"Type D"
      },
      {
        "model":"Newmar",
        "year":"2010",
        "elevationSystem":"Type F"
      },
      {
        "model":"Prevost",
        "year":"2009",
        "elevationSystem":"Type C"
      }
    ]
}